{
  "count_combination": {
    "BASE": "../src/combination_counter",
    "NAMED_ARGS": {
      "l": "{$2}"
    },
    "UNNAMED_ARGS": {
      "ORDER": ["data_file_name", "result_file_name"],
      "data_file_name": ["../data/{$0}/{$1}/master.slf"],
      "result_file_name": ["{$0}/l{l}.txt"]
    },
    "NAME": "{$0}_l{l}",
    "STDOUT": "{$0}/l{l}.out",
    "STDERR": "{$0}/l{l}.err",
    "RESOURCE": "nodes=1:ppn=4:taqy"
  }
}
